...
----------------------------------------------------------------------
Ran 3 tests in 0.001s

OK
Name               Stmts   Miss Branch BrPart  Cover   Missing
--------------------------------------------------------------
Diplomacy.py          60      8     44      4    85%   25->29, 29, 78->76, 96->95, 100->99, 112-113, 124-128
TestDiplomacy.py      35      0     12      0   100%
--------------------------------------------------------------
TOTAL                 95      8     56      4    89%
