Name               Stmts   Miss Branch BrPart  Cover   Missing
--------------------------------------------------------------
Diplomacy.py          61      0     32      0   100%
TestDiplomacy.py     146      0     10      0   100%
--------------------------------------------------------------
TOTAL                207      0     42      0   100%
