...
----------------------------------------------------------------------
Ran 3 tests in 0.001s

OK
Name               Stmts   Miss Branch BrPart  Cover   Missing
--------------------------------------------------------------
Diplomacy.py          63      1     32      2    97%   14->19, 75->76, 76
TestDiplomacy.py      21      0      0      0   100%
--------------------------------------------------------------
TOTAL                 84      1     32      2    97%