...
----------------------------------------------------------------------
Ran 3 tests in 0.001s

OK
Name               Stmts   Miss Branch BrPart  Cover   Missing
--------------------------------------------------------------
Diplomacy.py          64      0     48      0   100%
TestDiplomacy.py      21      0      0      0   100%
--------------------------------------------------------------
TOTAL                 85      0     48      0   100%
