..................
----------------------------------------------------------------------
Ran 18 tests in 0.014s
OK
Name               Stmts   Miss Branch BrPart  Cover   Missing
--------------------------------------------------------------
Diplomacy.py         160      4    132      4    97%   28->29, 29-31, 33->49, 92->exit, 130->133, 133
TestDiplomacy.py      70      0      0      0   100%
--------------------------------------------------------------
TOTAL                230      4    132      4    98%